{
    "object_type": "schedule_plan",
    "name": "Example plan",
    "plan_id": "f7f818d7-f4c5-4be5-bb6f-d7d29404a5c1",
    "events": [
        {
            "event_type": "output_event",
            "relative_timestamp": 0,
            "output_state": [
                1,
                0,
                1,
                1
            ],
            "output_amount": [
                8,
                13,
                18,
                14
            ],
            "output_units": [
                "ml",
                "ml",
                "ml",
                "ml"
            ]
        },
        {
            "event_type": "output_event",
            "relative_timestamp": 2,
            "output_state": [
                1,
                0,
                1,
                1
            ],
            "output_amount": [
                6,
                7,
                14,
                7
            ],
            "output_units": [
                "ml",
                "ml",
                "ml",
                "ml"
            ]
        },
        {
            "event_type": "output_event",
            "relative_timestamp": 4,
            "output_state": [
                0,
                0,
                1,
                1
            ],
            "output_amount": [
                19,
                5,
                8,
                11
            ],
            "output_units": [
                "ml",
                "ml",
                "ml",
                "ml"
            ]
        },
        {
            "event_type": "output_event",
            "relative_timestamp": 6,
            "output_state": [
                1,
                0,
                0,
                1
            ],
            "output_amount": [
                10,
                18,
                12,
                7
            ],
            "output_units": [
                "ml",
                "ml",
                "ml",
                "ml"
            ]
        },
        {
            "event_type": "output_event",
            "relative_timestamp": 8,
            "output_state": [
                0,
                1,
                1,
                1
            ],
            "output_amount": [
                12,
                13,
                18,
                6
            ],
            "output_units": [
                "ml",
                "ml",
                "ml",
                "ml"
            ]
        },
        {
            "event_type": "output_event",
            "relative_timestamp": 10,
            "output_state": [
                0,
                0,
                1,
                0
            ],
            "output_amount": [
                20,
                6,
                20,
                20
            ],
            "output_units": [
                "ml",
                "ml",
                "ml",
                "ml"
            ]
        },
        {
            "event_type": "output_event",
            "relative_timestamp": 12,
            "output_state": [
                0,
                0,
                0,
                0
            ],
            "output_amount": [
                20,
                10,
                13,
                7
            ],
            "output_units": [
                "ml",
                "ml",
                "ml",
                "ml"
            ]
        },
        {
            "event_type": "output_event",
            "relative_timestamp": 14,
            "output_state": [
                0,
                0,
                1,
                1
            ],
            "output_amount": [
                5,
                12,
                9,
                18
            ],
            "output_units": [
                "ml",
                "ml",
                "ml",
                "ml"
            ]
        },
        {
            "event_type": "output_event",
            "relative_timestamp": 16,
            "output_state": [
                0,
                0,
                0,
                0
            ],
            "output_amount": [
                15,
                17,
                17,
                12
            ],
            "output_units": [
                "ml",
                "ml",
                "ml",
                "ml"
            ]
        },
        {
            "event_type": "output_event",
            "relative_timestamp": 18,
            "output_state": [
                1,
                0,
                0,
                0
            ],
            "output_amount": [
                6,
                13,
                11,
                5
            ],
            "output_units": [
                "ml",
                "ml",
                "ml",
                "ml"
            ]
        }
    ],
    "comment": "This is just some example to get started, it does mean everything stays this way"
}